Library/Bee/artifacts/mvdfrm/UnityEditor.UI.ref.dll_BD0E97F52A0DF729.mvfrm
Library/Bee/artifacts/mvdfrm/UnityEngine.UI.ref.dll_79746E5030301F94.mvfrm
Library/Bee/artifacts/mvdfrm/UnityEditor.Graphs.dll_E9614C6713F80B27.mvfrm
Library/Bee/artifacts/mvdfrm/UnityEditor.CoreModule.dll_29EE719633A1B5F5.mvfrm
Library/Bee/artifacts/mvdfrm/UnityEditor.DeviceSimulatorModule.dll_B786733D2E024CDC.mvfrm
Library/Bee/artifacts/mvdfrm/UnityEditor.DiagnosticsModule.dll_D7338D7D3B39E82A.mvfrm
Library/Bee/artifacts/mvdfrm/UnityEditor.dll_CFF9832B67643190.mvfrm
Library/Bee/artifacts/mvdfrm/UnityEditor.GraphViewModule.dll_B0CBD75290F6AAC1.mvfrm
Library/Bee/artifacts/mvdfrm/UnityEditor.PackageManagerUIModule.dll_6FEF6F610D90D311.mvfrm
Library/Bee/artifacts/mvdfrm/UnityEditor.PresetsUIModule.dll_6C321034934F02C6.mvfrm
Library/Bee/artifacts/mvdfrm/UnityEditor.QuickSearchModule.dll_62430E8A9410E483.mvfrm
Library/Bee/artifacts/mvdfrm/UnityEditor.SceneTemplateModule.dll_0641C6D76BB02164.mvfrm
Library/Bee/artifacts/mvdfrm/UnityEditor.TextCoreFontEngineModule.dll_5B0FC7D7F6B7EFD3.mvfrm
Library/Bee/artifacts/mvdfrm/UnityEditor.TextCoreTextEngineModule.dll_A2F7FE49863BA8F1.mvfrm
Library/Bee/artifacts/mvdfrm/UnityEditor.UIBuilderModule.dll_0554846F03AF23F5.mvfrm
Library/Bee/artifacts/mvdfrm/UnityEditor.UIElementsModule.dll_2116618FE69D0311.mvfrm
Library/Bee/artifacts/mvdfrm/UnityEditor.UIElementsSamplesModule.dll_AEC6BFC01C14DA6C.mvfrm
Library/Bee/artifacts/mvdfrm/UnityEditor.UIServiceModule.dll_3E4695D1ECE6740F.mvfrm
Library/Bee/artifacts/mvdfrm/UnityEditor.UnityConnectModule.dll_48B63CE5C1D45F2B.mvfrm
Library/Bee/artifacts/mvdfrm/UnityEngine.AccessibilityModule.dll_38E7326E6C264901.mvfrm
Library/Bee/artifacts/mvdfrm/UnityEngine.AIModule.dll_BD8D7CC143F2D7A9.mvfrm
Library/Bee/artifacts/mvdfrm/UnityEngine.AndroidJNIModule.dll_9F5F4A632FBC71E7.mvfrm
Library/Bee/artifacts/mvdfrm/UnityEngine.AnimationModule.dll_7F51537B6B537F67.mvfrm
Library/Bee/artifacts/mvdfrm/UnityEngine.ARModule.dll_770041C4A1103672.mvfrm
Library/Bee/artifacts/mvdfrm/UnityEngine.AssetBundleModule.dll_A62C417BF6779975.mvfrm
Library/Bee/artifacts/mvdfrm/UnityEngine.AudioModule.dll_0EEDF8752CE02E99.mvfrm
Library/Bee/artifacts/mvdfrm/UnityEngine.ClothModule.dll_75D6557006FD0D7D.mvfrm
Library/Bee/artifacts/mvdfrm/UnityEngine.ClusterInputModule.dll_C852B1FB735C31F1.mvfrm
Library/Bee/artifacts/mvdfrm/UnityEngine.ClusterRendererModule.dll_BD3335AE9DBD5A60.mvfrm
Library/Bee/artifacts/mvdfrm/UnityEngine.CoreModule.dll_4D0F44E8DBA72120.mvfrm
Library/Bee/artifacts/mvdfrm/UnityEngine.CrashReportingModule.dll_027062244E91A8B8.mvfrm
Library/Bee/artifacts/mvdfrm/UnityEngine.DirectorModule.dll_844E80A60208B73D.mvfrm
Library/Bee/artifacts/mvdfrm/UnityEngine.dll_029DCA03C5D7BE75.mvfrm
Library/Bee/artifacts/mvdfrm/UnityEngine.DSPGraphModule.dll_899FE20F7469885E.mvfrm
Library/Bee/artifacts/mvdfrm/UnityEngine.GameCenterModule.dll_C9AC947DF5FD62D8.mvfrm
Library/Bee/artifacts/mvdfrm/UnityEngine.GIModule.dll_55C9C5CEDFA1BFC3.mvfrm
Library/Bee/artifacts/mvdfrm/UnityEngine.GridModule.dll_2A8060D6F3FBB717.mvfrm
Library/Bee/artifacts/mvdfrm/UnityEngine.HotReloadModule.dll_009A118146869AE9.mvfrm
Library/Bee/artifacts/mvdfrm/UnityEngine.ImageConversionModule.dll_2925335F1FE21254.mvfrm
Library/Bee/artifacts/mvdfrm/UnityEngine.IMGUIModule.dll_474D97DBF311C27A.mvfrm
Library/Bee/artifacts/mvdfrm/UnityEngine.InputLegacyModule.dll_37715C9A8E694F66.mvfrm
Library/Bee/artifacts/mvdfrm/UnityEngine.InputModule.dll_7563C025A318533D.mvfrm
Library/Bee/artifacts/mvdfrm/UnityEngine.JSONSerializeModule.dll_98FEBBAA6B61A98B.mvfrm
Library/Bee/artifacts/mvdfrm/UnityEngine.LocalizationModule.dll_069F7C4E0AD824EA.mvfrm
Library/Bee/artifacts/mvdfrm/UnityEngine.ParticleSystemModule.dll_5582AB70BCA33446.mvfrm
Library/Bee/artifacts/mvdfrm/UnityEngine.PerformanceReportingModule.dll_E8BA3FC77CA7D5DF.mvfrm
Library/Bee/artifacts/mvdfrm/UnityEngine.Physics2DModule.dll_CBF7436C0C5076FC.mvfrm
Library/Bee/artifacts/mvdfrm/UnityEngine.PhysicsModule.dll_EE0F5E81A8B3968A.mvfrm
Library/Bee/artifacts/mvdfrm/UnityEngine.ProfilerModule.dll_B694B9DC9B623E4A.mvfrm
Library/Bee/artifacts/mvdfrm/UnityEngine.RuntimeInitializeOnLoadManagerInitializerModule.dll_4CDB5AA2829DDFC5.mvfrm
Library/Bee/artifacts/mvdfrm/UnityEngine.ScreenCaptureModule.dll_B2E6692F7FCDD5ED.mvfrm
Library/Bee/artifacts/mvdfrm/UnityEngine.SharedInternalsModule.dll_AD36723497100DA4.mvfrm
Library/Bee/artifacts/mvdfrm/UnityEngine.SpriteMaskModule.dll_B2D9070E176CF852.mvfrm
Library/Bee/artifacts/mvdfrm/UnityEngine.SpriteShapeModule.dll_BF8D6ED6AC19D17F.mvfrm
Library/Bee/artifacts/mvdfrm/UnityEngine.StreamingModule.dll_33E640CBBADB36A5.mvfrm
Library/Bee/artifacts/mvdfrm/UnityEngine.SubstanceModule.dll_10915515062E34B3.mvfrm
Library/Bee/artifacts/mvdfrm/UnityEngine.SubsystemsModule.dll_1D866D6FE5B4E065.mvfrm
Library/Bee/artifacts/mvdfrm/UnityEngine.TerrainModule.dll_0855D9F07E71DF78.mvfrm
Library/Bee/artifacts/mvdfrm/UnityEngine.TerrainPhysicsModule.dll_55FD5443D5E62ED3.mvfrm
Library/Bee/artifacts/mvdfrm/UnityEngine.TextCoreFontEngineModule.dll_D96F432B09B5AE9E.mvfrm
Library/Bee/artifacts/mvdfrm/UnityEngine.TextCoreTextEngineModule.dll_2157799C993967BC.mvfrm
Library/Bee/artifacts/mvdfrm/UnityEngine.TextRenderingModule.dll_DC25DB3A370555E2.mvfrm
Library/Bee/artifacts/mvdfrm/UnityEngine.TilemapModule.dll_A7524171962EC081.mvfrm
Library/Bee/artifacts/mvdfrm/UnityEngine.TLSModule.dll_968DB636E43E34DE.mvfrm
Library/Bee/artifacts/mvdfrm/UnityEngine.UIElementsModule.dll_21C4CED7E8E11C5C.mvfrm
Library/Bee/artifacts/mvdfrm/UnityEngine.UIElementsNativeModule.dll_BA6923F67F094333.mvfrm
Library/Bee/artifacts/mvdfrm/UnityEngine.UIModule.dll_B9011AEEA039DD55.mvfrm
Library/Bee/artifacts/mvdfrm/UnityEngine.UmbraModule.dll_89C2A48DBA06DA0C.mvfrm
Library/Bee/artifacts/mvdfrm/UnityEngine.UNETModule.dll_DFB58CD228B61699.mvfrm
Library/Bee/artifacts/mvdfrm/UnityEngine.UnityAnalyticsModule.dll_75221C3A68CA8642.mvfrm
Library/Bee/artifacts/mvdfrm/UnityEngine.UnityConnectModule.dll_3615C0F4BC5C5FD6.mvfrm
Library/Bee/artifacts/mvdfrm/UnityEngine.UnityCurlModule.dll_B26DF4ACDB677154.mvfrm
Library/Bee/artifacts/mvdfrm/UnityEngine.UnityTestProtocolModule.dll_6A8975B276102FC2.mvfrm
Library/Bee/artifacts/mvdfrm/UnityEngine.UnityWebRequestAssetBundleModule.dll_E657A86805808A93.mvfrm
Library/Bee/artifacts/mvdfrm/UnityEngine.UnityWebRequestAudioModule.dll_60B693A60312A077.mvfrm
Library/Bee/artifacts/mvdfrm/UnityEngine.UnityWebRequestModule.dll_3AC43B092AD6ACD3.mvfrm
Library/Bee/artifacts/mvdfrm/UnityEngine.UnityWebRequestTextureModule.dll_494ADD305C00FB2C.mvfrm
Library/Bee/artifacts/mvdfrm/UnityEngine.UnityWebRequestWWWModule.dll_EC19BEF888F92428.mvfrm
Library/Bee/artifacts/mvdfrm/UnityEngine.VehiclesModule.dll_FC117A257C3286D8.mvfrm
Library/Bee/artifacts/mvdfrm/UnityEngine.VFXModule.dll_176C4EA5BAAB9E4B.mvfrm
Library/Bee/artifacts/mvdfrm/UnityEngine.VideoModule.dll_33F77CDFEF724A3E.mvfrm
Library/Bee/artifacts/mvdfrm/UnityEngine.VirtualTexturingModule.dll_DEF5D86557B7C3BE.mvfrm
Library/Bee/artifacts/mvdfrm/UnityEngine.VRModule.dll_0BD3417441F462CD.mvfrm
Library/Bee/artifacts/mvdfrm/UnityEngine.WindModule.dll_C35E20116CDD9F89.mvfrm
Library/Bee/artifacts/mvdfrm/UnityEngine.XRModule.dll_3E920478CB2EB02B.mvfrm
Library/Bee/artifacts/mvdfrm/UnityEditor.OSXStandalone.Extensions.dll_90DACA98C32A8026.mvfrm
Library/Bee/artifacts/mvdfrm/Unity.Plastic.Antlr3.Runtime.dll_2E604BB7650BCD46.mvfrm
Library/Bee/artifacts/mvdfrm/Unity.Plastic.Newtonsoft.Json.dll_0A3AA00D6FE8808F.mvfrm