{
	"process_id" : 71228,
	"version" : "2022.1.0b14",
	"app_path" : "/Applications/Unity/Hub/Editor/2022.1.0b14/Unity.app",
	"app_contents_path" : "/Applications/Unity/Hub/Editor/2022.1.0b14/Unity.app/Contents"
}